{
  "Cameras": [
    {
      "Position": [
        0.0,
        15.0,
		0.0
      ],
      "Zoom": 80.0,
      "Mode": "Perspective"
    }
  ],
  "Shaders": [
      {
      "ID": 0,
      "Path": "res/shaders/toon/toon.glsl",
      "Uniforms": []
    }
  ],
  "Lights": [
	{
      "Attenuation": [
        1.0,
        1.0,
        0.0
      ],
      "Color": [
        0.5,
        0.2,
        1.0,
        1.0
      ],
      "Intensity": 1.0,
      "Position": [
        35.0,
        5.0,
        0.0,
        0.0
      ]
    },	{
      "Attenuation": [
        1.0,
        1.0,
        0.0
      ],
      "Color": [
        0.5,
        0.2,
        1.0,
        1.0
      ],
      "Intensity": 1.0,
      "Position": [
        -25.0,
        0.0,
        0.0,
        0.0
      ]
    }
  ],
  "Models": [
	 {
      "File": "res/models/AkuAku/AkuAku.obj",
      "Translation": [
       15.0,
       0.0,
       15.0
      ],
      "Rotation": [
        0.0,
        -46.4,
        0.0
      ],
      "Shader": 0,
      "Scale": [
        1.0,
        1.0,
        1.0
      ],
      "Uniforms": []
    }
  ],
  "PostProcess": [
      {
      "Shader": "res/shaders/deferred/WaterColor.glsl",
	  "Uniforms": [
		{
			"Type" : "Texture",
			"Name" : "paperTex",
			"Path" : "res/images/paper2.jpg"
		},		
		{
			"Type" : "Texture",
			"Name" : "pigmentTex",
			"Path" : "res/images/gaussian.jpg"
		},
		{
			"Type" : "Texture",
			"Name" : "turbulenceTex",
			"Path" : "res/images/blurredHardPerlin.png"
		},
        {
          "Type": "Float",
          "Key-": "b",
          "Key+": "B",
          "Name": "uDensityFactor",
          "InitValue": 1.0,
          "Steps": 0.1
        },
		{
          "Type": "Float",
          "Key-": "v",
          "Key+": "V",
          "Name": "uIntensityFactor",
          "InitValue": 1.0,
          "Steps": 0.1
        },
		{
          "Type": "Float",
          "Key-": "g",
          "Key+": "G",
          "Name": "uPigmentFactor",
          "InitValue": 1.0,
          "Steps": 0.1
        },
		{
          "Type": "Float",
          "Key-": "t",
          "Key+": "T",
          "Name": "uTurbulenceFactor",
          "InitValue": 1.0,
          "Steps": 0.1
        }
	  ]
    }
  ]
}
