{
  "Cameras": [
    {
      "Position": [
        0.0,
        450.0,
        0.0
      ],
      "Zoom": 80.0,
      "Mode": "Perspective"
    }
  ],
  "Grid": [
    {
      "RenderShader": 0,
      "xSize": 10,
      "zSize": 10,
      "Scale": 400,
      "BaseHeight": -100
    },
		{
      "RenderShader": 2,
      "xSize": 10,
      "zSize": 10,
      "Scale": 400,
      "BaseHeight": 100
    }
  ],
  "ParticleSystem": [
    {
      "RenderShader": 4,
      "ComputeShader": 3,
      "MaxLifeTime": 2,
      "EmitPos": [ 0, 1500.0, 0.0 ],
      "Attractors": [
        [ 0.0, -500.0, 0.0 ]
      ],
      "Distribution": 1500,
      "ParticlesNum": 65536,
      "CsWorkers": 128
    }
  ],
  "Shaders": [
      {
      "ID": 3,
      "Path": "res/shaders/compute/calc.glsl",
      "Uniforms": [
        {
          "Type": "Float",
          "Key-": "1",
          "Key+": "2",
          "Name": "uMass",
          "InitValue": 2,
          "Steps": 0.01
        },
        {
          "Type": "Float",
          "Key-": "4",
          "Key+": "5",
          "Name": "uDamping",
          "InitValue": 0.1,
          "Steps": 0.001
        },
        {
          "Type": "Float",
          "Key-": "7",
          "Key+": "8",
          "Name": "uAttractorsIntensity",
          "InitValue": 7,
          "Steps": 0.5
        }
      ]
    },
    {
      "ID": 4,
      "Path": "res/shaders/compute/draw.glsl",
      "Uniforms": []
    },
    {
      "ID": 1,
      "Path": "res/shaders/fwRender.glsl",
      "Uniforms": []
    },
    {
      "ID": 0,
      "Path": "res/shaders/procedural/terrain.glsl",
      "Uniforms": [
        {
          "Type": "Float",
          "Key-": "n",
          "Key+": "N",
          "Name": "uNoiseFactor",
          "InitValue": 23.0,
          "Steps": 0.5
        },
        {
          "Type": "Float",
          "Key-": "t",
          "Key+": "T",
          "Name": "uTimeFactor",
          "InitValue": 0.0005,
          "Steps": 0.0001
        }
      ]
    },
    {
      "ID": 2,
      "Path": "res/shaders/procedural/water.glsl",
      "Uniforms": [
        {
          "Type": "Float",
          "Key-": "n",
          "Key+": "N",
          "Name": "uNoiseFactor",
          "InitValue": 10.0,
          "Steps": 0.5
        },
        {
          "Type": "Float",
          "Key-": "t",
          "Key+": "T",
          "Name": "uTimeFactor",
          "InitValue": 0.0002,
          "Steps": 0.0001
        }
      ]
    }
  ],
  "Lights": [
	{
      "Attenuation": [
        1.0,
        0.0,
        0.0
      ],
      "Color": [
        0.8,
        0.2,
        0.8,
        1.0
      ],
      "Intensity": 1.0,
      "Position": [
        0.0,
        -50.0,
        0.0,
        0.0
      ]
    }
  ],
  "Models": [
 {
      "File": "res/models/cube.blend",
      "Translation": [
       0.0,
       150.0,
        -35.0
      ],
      "Rotation": [
        0.0,
        0.0,
        0.0
      ],
      "Shader": 1,
      "Scale": [
        100.0,
        100.0,
        100.0
      ],
      "Uniforms": []
    }, {
      "File": "res/models/cube.blend",
      "Translation": [
        500.0,
       150.0,
        0.0
      ],
      "Rotation": [
        0.0,
        0.0,
        0.0
      ],
      "Shader": 1,
      "Scale": [
        100.0,
        100.0,
        100.0
      ],
      "Uniforms": []
    }, {
      "File": "res/models/cube.blend",
      "Translation": [
        -500.0,
       150.0,
        0.0
      ],
      "Rotation": [
        0.0,
        0.0,
        0.0
      ],
      "Shader": 1,
      "Scale": [
        100.0,
        100.0,
        100.0
      ],
      "Uniforms": []
    }, {
      "File": "res/models/cube.blend",
      "Translation": [
        125.0,
       150.0,
        500.0
      ],
      "Rotation": [
        0.0,
        0.0,
        0.0
      ],
      "Shader": 1,
      "Scale": [
        100.0,
        100.0,
        100.0
      ],
      "Uniforms": []
    }, {
      "File": "res/models/cube.blend",
      "Translation": [
        -500.0,
       150.0,
        0.0
      ],
      "Rotation": [
        0.0,
        0.0,
        0.0
      ],
      "Shader": 1,
      "Scale": [
        100.0,
        100.0,
        100.0
      ],
      "Uniforms": []
    }, {
      "File": "res/models/cube.blend",
      "Translation": [
        125.0,
       150.0,
        -500.0
      ],
      "Rotation": [
        0.0,
        0.0,
        0.0
      ],
      "Shader": 1,
      "Scale": [
        100.0,
        100.0,
        100.0
      ],
      "Uniforms": []
    }
  ],
  "PostProcess": [
    {
      "Shader": "res/shaders/deferred/Light.glsl"
    }
  ],
  "PreProcess": [
    {
      "ID": 0,
      "Name": "u_PerlinTex",
      "Shader": "res/shaders/prepro/Perlin.glsl"
    },    {
      "ID": 1,
      "Name": "u_PerlinTex2",
      "Shader": "res/shaders/prepro/Perlin2.glsl"
    }
  ]
}
